<?xml version="1.0" encoding="UTF-8" standalone="no"?>
<!-- Created with Inkscape (http://www.inkscape.org/) -->

<svg
   width="2000"
   height="900"
   viewBox="0 0 529.16665 238.125"
   version="1.1"
   id="svg16748"
   inkscape:version="1.2.1 (9c6d41e410, 2022-07-14)"
   sodipodi:docname="individual.svg"
   xmlns:inkscape="http://www.inkscape.org/namespaces/inkscape"
   xmlns:sodipodi="http://sodipodi.sourceforge.net/DTD/sodipodi-0.dtd"
   xmlns="http://www.w3.org/2000/svg"
   xmlns:svg="http://www.w3.org/2000/svg">
  <sodipodi:namedview
     id="namedview16750"
     pagecolor="#ffffff"
     bordercolor="#666666"
     borderopacity="1.0"
     inkscape:showpageshadow="2"
     inkscape:pageopacity="0.0"
     inkscape:pagecheckerboard="true"
     inkscape:deskcolor="#d1d1d1"
     inkscape:document-units="mm"
     showgrid="false"
     inkscape:zoom="0.38796647"
     inkscape:cx="1001.3752"
     inkscape:cy="639.2305"
     inkscape:window-width="1920"
     inkscape:window-height="1051"
     inkscape:window-x="0"
     inkscape:window-y="0"
     inkscape:window-maximized="1"
     inkscape:current-layer="layer1" />
  <defs
     id="defs16745" />
  <g
     inkscape:label="Ebene 1"
     inkscape:groupmode="layer"
     id="layer1">
    <rect
       style="fill:#000000;fill-opacity:1;stroke:#000000;stroke-width:0.0600481;stroke-linecap:square;stroke-miterlimit:0;stroke-opacity:0;paint-order:fill markers stroke"
       id="rect16921"
       width="233.58727"
       height="171.28131"
       x="71.124619"
       y="30.060236"
       rx="9.0974016" />
    <rect
       style="fill:#000000;fill-opacity:1;stroke:#000000;stroke-width:0.0391543;stroke-linecap:square;stroke-miterlimit:0;stroke-opacity:0;paint-order:fill markers stroke"
       id="rect16921-5"
       width="152.31046"
       height="111.68389"
       x="368.26917"
       y="51.436443"
       rx="5.9319568" />
    <rect
       style="fill:#595959;fill-opacity:1;stroke:#000000;stroke-width:0.0569507;stroke-linecap:square;stroke-miterlimit:0;stroke-opacity:0;paint-order:fill markers stroke"
       id="rect17338"
       width="46.672508"
       height="132.3432"
       x="13.579605"
       y="30.058683"
       rx="8.9024372" />
    <rect
       style="fill:#595959;fill-opacity:1;stroke:#000000;stroke-width:0.0569507;stroke-linecap:square;stroke-miterlimit:0;stroke-opacity:0;paint-order:fill markers stroke"
       id="rect17338-3"
       width="46.672508"
       height="132.3432"
       x="313.31046"
       y="43.094074"
       rx="8.9024372" />
    <rect
       style="fill:#595959;fill-opacity:1;stroke:#000000;stroke-width:0.0671358;stroke-linecap:square;stroke-miterlimit:0;stroke-opacity:0;paint-order:fill markers stroke"
       id="rect17340"
       width="54.450569"
       height="38.874084"
       x="9.6905708"
       y="169.19405"
       rx="10.028824" />
  </g>
</svg>
